0
SECTION
2
HEADER
9
$INSUNITS
70
1
9
$ACADVER
1
AC1014
9
$HANDSEED
5
FFFF
0
ENDSEC
0
SECTION
2
TABLES
0
TABLE
2
VPORT
5
8
100
AcDbSymbolTable
0
ENDTAB
0
TABLE
2
LTYPE
5
5
100
AcDbSymbolTable
0
LTYPE
5
14
100
AcDbSymbolTableRecord
100
AcDbLinetypeTableRecord
2
BYBLOCK
70
0
0
LTYPE
5
15
100
AcDbSymbolTableRecord
100
AcDbLinetypeTableRecord
2
BYLAYER
70
0
0
ENDTAB
0
TABLE
2
LAYER
5
2
100
AcDbSymbolTable
70
2
0
LAYER
5
50
100
AcDbSymbolTableRecord
100
AcDbLayerTableRecord
2
0
70
0
6
CONTINUOUS
0
ENDTAB
0
TABLE
2
STYLE
5
3
100
AcDbSymbolTable
70
1
0
STYLE
5
11
100
AcDbSymbolTableRecord
100
AcDbTextStyleTableRecord
2
STANDARD
70
0
0
ENDTAB
0
TABLE
2
VIEW
5
6
100
AcDbSymbolTable
70
0
0
ENDTAB
0
TABLE
2
UCS
5
7
100
AcDbSymbolTable
70
0
0
ENDTAB
0
TABLE
2
APPID
5
9
100
AcDbSymbolTable
70
2
0
APPID
5
12
100
AcDbSymbolTableRecord
100
AcDbRegAppTableRecord
2
ACAD
70
0
0
ENDTAB
0
TABLE
2
DIMSTYLE
5
A
100
AcDbSymbolTable
70
1
0
ENDTAB
0
TABLE
2
BLOCK_RECORD
5
1
100
AcDbSymbolTable
70
1
0
BLOCK_RECORD
5
1F
100
AcDbSymbolTableRecord
100
AcDbBlockTableRecord
2
*MODEL_SPACE
0
BLOCK_RECORD
5
1B
100
AcDbSymbolTableRecord
100
AcDbBlockTableRecord
2
*PAPER_SPACE
0
ENDTAB
0
ENDSEC
0
SECTION
2
BLOCKS
0
BLOCK
5
20
100
AcDbEntity
100
AcDbBlockBegin
2
*MODEL_SPACE
0
ENDBLK
5
21
100
AcDbEntity
100
AcDbBlockEnd
0
BLOCK
5
1C
100
AcDbEntity
100
AcDbBlockBegin
2
*PAPER_SPACE
0
ENDBLK
5
1D
100
AcDbEntity
100
AcDbBlockEnd
0
ENDSEC
0
SECTION
2
ENTITIES
0
LWPOLYLINE
5
100
100
AcDbEntity
8
0
100
AcDbPolyline
90
18
70
1
43
0.0
10
1.9999999999999984
20
0.036818767559082748
42
-0.14421216857348138
10
1.9800416369767686
20
-0.030940028926985948
10
-0.46307564151561226
20
-3.8183307673654259
42
-0.25478207902854066
10
-0.56811727849238192
20
-3.8755719708793581
10
-1.0550000000000028
20
-3.8755719708793581
10
-1.0550000000000026
20
-2.8175011047365959
42
0.41421356237309509
10
-1.1800000000000024
20
-2.6925011047365959
10
-1.8200000000000029
20
-2.6925011047365963
42
0.41421356237309509
10
-1.9450000000000029
20
-2.8175011047365959
10
-1.9450000000000025
20
-3.8755719708795873
10
-2.7056106937959532
20
-3.8755719708793581
42
-0.21258836605537015
10
-2.79851397690447
20
-3.8342019893395904
10
-6.217903283108515
20
-0.03565574217398617
42
-0.18530757047129015
10
-6.2499999999999991
20
0.04797427628624748
10
-6.2499999999999991
20
3.8749999999999987
42
-0.41421356237309176
10
-6.1249999999999982
20
3.9999999999999991
10
1.8750000000000009
20
3.9999999999999982
42
-0.4142135623730942
10
2.0000000000000004
20
3.8749999999999987
0
CIRCLE
5
101
100
AcDbEntity
8
0
100
AcDbCircle
10
-1.5001563372905371
20
2.5034429576028132
30
0
40
0.099114173228346467
0
CIRCLE
5
102
100
AcDbEntity
8
0
100
AcDbCircle
10
-1.5001563372905367
20
1.5034429576028137
30
0
40
0.099114173228346467
0
CIRCLE
5
103
100
AcDbEntity
8
0
100
AcDbCircle
10
-1.5001563372905371
20
3.0034429576028137
30
0
40
0.062999999999999931
0
CIRCLE
5
104
100
AcDbEntity
8
0
100
AcDbCircle
10
-1.5001563372905367
20
1.0034429576028139
30
0
40
0.062999999999999931
0
CIRCLE
5
105
100
AcDbEntity
8
0
100
AcDbCircle
10
-2.2450000000000028
20
-3.1255719708793577
30
0
40
0.099114173228346467
0
CIRCLE
5
106
100
AcDbEntity
8
0
100
AcDbCircle
10
-5.1935570423960433
20
1.0160303530374377
30
0
40
0.053149606299212511
0
CIRCLE
5
107
100
AcDbEntity
8
0
100
AcDbCircle
10
-0.75500000000000267
20
-3.1255719708793577
30
0
40
0.099114173228346467
0
CIRCLE
5
108
100
AcDbEntity
8
0
100
AcDbCircle
10
-2.2450000000000019
20
-3.625571970879359
30
0
40
0.099114173228346467
0
CIRCLE
5
109
100
AcDbEntity
8
0
100
AcDbCircle
10
-5.1935570423960433
20
2.0002823215413748
30
0
40
0.053149606299212511
0
CIRCLE
5
110
100
AcDbEntity
8
0
100
AcDbCircle
10
-0.75500000000000311
20
-3.625571970879359
30
0
40
0.099114173228346467
0
LWPOLYLINE
5
111
100
AcDbEntity
8
0
100
AcDbPolyline
90
18
70
1
43
0.0
10
1.9999999999999989
20
0.036818767559082685
42
-0.14421216857347888
10
1.9800416369767688
20
-0.030940028926985948
10
-0.46307564151561159
20
-3.8183307673654272
42
-0.25478207902853711
10
-0.56811727849238192
20
-3.8755719708793586
10
-1.0550000000000028
20
-3.8755719708793581
10
-1.0550000000000028
20
-2.8175011047365959
42
0.41421356237309631
10
-1.1800000000000024
20
-2.6925011047365954
10
-1.8200000000000029
20
-2.6925011047365959
42
0.4142135623730967
10
-1.9450000000000029
20
-2.8175011047365959
10
-1.9450000000000029
20
-3.8755719708793572
10
-2.7056106937959536
20
-3.8755719708793572
42
-0.21258836605537282
10
-2.79851397690447
20
-3.8342019893395904
10
-6.217903283108515
20
-0.035655742173985837
42
-0.1853075704712929
10
-6.2499999999999991
20
0.04797427628624748
10
-6.2499999999999991
20
3.8749999999999987
42
-0.41421356237309509
10
-6.1249999999999982
20
3.9999999999999991
10
1.8750000000000009
20
3.9999999999999982
42
-0.41421356237309509
10
2.0000000000000009
20
3.8749999999999987
0
CIRCLE
5
112
100
AcDbEntity
8
0
100
AcDbCircle
10
-0.75500000000000311
20
-3.625571970879359
30
5.4636959873285258e-18
40
0.099114173228346467
0
CIRCLE
5
113
100
AcDbEntity
8
0
100
AcDbCircle
10
-5.1935570423960433
20
2.0002823215413748
30
1.0927391974657052e-17
40
0.053149606299212511
0
CIRCLE
5
114
100
AcDbEntity
8
0
100
AcDbCircle
10
-2.2450000000000019
20
-3.625571970879359
30
5.4636959873285258e-18
40
0.099114173228346467
0
CIRCLE
5
115
100
AcDbEntity
8
0
100
AcDbCircle
10
-0.75500000000000267
20
-3.1255719708793577
30
1.0927391974657052e-17
40
0.099114173228346467
0
CIRCLE
5
116
100
AcDbEntity
8
0
100
AcDbCircle
10
-5.1935570423960433
20
1.0160303530374377
30
1.0927391974657052e-17
40
0.053149606299212511
0
CIRCLE
5
117
100
AcDbEntity
8
0
100
AcDbCircle
10
-2.2450000000000028
20
-3.1255719708793577
30
1.0927391974657052e-17
40
0.099114173228346467
0
CIRCLE
5
118
100
AcDbEntity
8
0
100
AcDbCircle
10
-1.5001563372905367
20
1.0034429576028139
30
1.0927391974657052e-17
40
0.062999999999999931
0
CIRCLE
5
119
100
AcDbEntity
8
0
100
AcDbCircle
10
-1.5001563372905371
20
3.0034429576028137
30
1.0927391974657052e-17
40
0.062999999999999931
0
CIRCLE
5
120
100
AcDbEntity
8
0
100
AcDbCircle
10
-1.5001563372905367
20
1.5034429576028137
30
1.0927391974657052e-17
40
0.099114173228346467
0
CIRCLE
5
121
100
AcDbEntity
8
0
100
AcDbCircle
10
-1.5001563372905371
20
2.5034429576028132
30
1.0927391974657052e-17
40
0.099114173228346467
0
LWPOLYLINE
5
122
100
AcDbEntity
8
0
100
AcDbPolyline
90
22
70
1
43
0.0
10
-4.2533129819868503
20
-4.0838371471688903
42
-0.070333795087103801
10
-4.2186637064991759
20
-4.0887354081799021
10
-0.87360560148094224
20
-5.0537825488685284
42
0.070333795087089465
10
-0.83895632599326764
20
-5.0586808098795393
10
0.018372810251034745
20
-5.0586808098795375
42
-0.4142135623730947
10
0.14337281025103538
20
-5.1836808098795384
10
0.1433728102510369
20
-5.6386808098795402
10
-0.85662718974896179
20
-5.6386808098795402
42
0.41421356237309509
10
-0.98162718974896257
20
-5.7636808098795411
10
-0.98162718974896312
20
-6.4036808098795417
42
0.41421356237309703
10
-0.85662718974896235
20
-6.5286808098795417
10
0.14337281025126616
20
-6.5286808098795399
10
0.14337281025103604
20
-6.9836808098795409
42
-0.41421356237310114
10
0.018372810251036611
20
-7.1086808098795409
10
-0.83895088038269605
20
-7.1086808098795435
42
0.070355256290726004
10
-0.87361041508859993
20
-7.1135820311431601
10
-4.2186588928914848
20
-8.0789359259052755
42
-0.070355256290752122
10
-4.2533184275973879
20
-8.083837147168893
10
-7.1106421182311248
20
-8.0838371471689072
42
-0.41421356237310486
10
-7.2356421182311248
20
-7.9588371471689099
10
-7.2356421182311523
20
-4.2088371471689063
42
-0.41421356237309825
10
-7.1106421182311532
20
-4.0838371471689054
0
CIRCLE
5
123
100
AcDbEntity
8
0
100
AcDbCircle
10
-6.7196421182311248
20
-7.5598371471700805
30
0
40
0.20669291338582707
0
CIRCLE
5
124
100
AcDbEntity
8
0
100
AcDbCircle
10
-4.7516421182311417
20
-4.607837147170069
30
0
40
0.20669291338582693
0
CIRCLE
5
125
100
AcDbEntity
8
0
100
AcDbCircle
10
-4.7516421182311257
20
-7.5598371471700698
30
0
40
0.20669291338582693
0
CIRCLE
5
126
100
AcDbEntity
8
0
100
AcDbCircle
10
-6.7196421182311408
20
-4.6078371471700788
30
0
40
0.20669291338582707
0
CIRCLE
5
127
100
AcDbEntity
8
0
100
AcDbCircle
10
-0.10662718974896142
20
-6.8286808098795397
30
0
40
0.09911417322834655
0
CIRCLE
5
128
100
AcDbEntity
8
0
100
AcDbCircle
10
-0.60662718974896257
20
-6.8286808098795415
30
0
40
0.09911417322834655
0
CIRCLE
5
129
100
AcDbEntity
8
0
100
AcDbCircle
10
-6.7356421182311337
20
-6.0838371471700796
30
0
40
0.063000000000000153
0
CIRCLE
5
130
100
AcDbEntity
8
0
100
AcDbCircle
10
-6.2356421182311337
20
-6.0838371471700796
30
0
40
0.09911417322834655
0
CIRCLE
5
131
100
AcDbEntity
8
0
100
AcDbCircle
10
-5.2356421182311337
20
-6.0838371471700787
30
0
40
0.09911417322834655
0
CIRCLE
5
132
100
AcDbEntity
8
0
100
AcDbCircle
10
-0.60662718974896401
20
-5.3386808098795395
30
0
40
0.09911417322834655
0
CIRCLE
5
133
100
AcDbEntity
8
0
100
AcDbCircle
10
-4.7356421182311337
20
-6.0838371471700778
30
0
40
0.063000000000000056
0
CIRCLE
5
134
100
AcDbEntity
8
0
100
AcDbCircle
10
-0.10662718974896281
20
-5.3386808098795395
30
0
40
0.09911417322834655
0
CIRCLE
5
135
100
AcDbEntity
8
0
100
AcDbCircle
10
1.4781979934180554
20
-2.6014965944784598
30
0
40
0.20669291338582702
0
CIRCLE
5
136
100
AcDbEntity
8
0
100
AcDbCircle
10
1.478197993418058
20
-3.5854965944784603
30
0
40
0.20669291338582702
0
CIRCLE
5
137
100
AcDbEntity
8
0
100
AcDbCircle
10
1.4781979934180609
20
-4.569496594478462
30
0
40
0.20669291338582702
0
LWPOLYLINE
5
138
100
AcDbEntity
8
0
100
AcDbPolyline
90
6
70
1
43
0.0
10
0.97819799341805391
20
-2.3974965944784623
42
-0.41421356237309337
10
1.1031979934180538
20
-2.2724965944784614
10
1.8531979934180549
20
-2.2724965944784601
42
-0.41421356237309509
10
1.9781979934180554
20
-2.3974965944784596
10
1.9781979934180647
20
-5.644996594478461
10
0.97819799341806568
20
-5.6449965944784646
0
LWPOLYLINE
5
139
100
AcDbEntity
8
0
100
AcDbPolyline
90
4
70
1
43
0.0
10
0.97819799341806934
20
-5.8999965944784636
10
1.9781979934180653
20
-5.8999965944784618
10
1.9781979934180658
20
-6.0224965944784605
10
0.97819799341806446
20
-6.0224965944784641
0
CIRCLE
5
140
100
AcDbEntity
8
0
100
AcDbCircle
10
1.4781979934180609
20
-4.5694965944784629
30
5.4636959873285258e-18
40
0.12598425196850405
0
CIRCLE
5
141
100
AcDbEntity
8
0
100
AcDbCircle
10
1.478197993418058
20
-3.5854965944784616
30
5.4636959873285258e-18
40
0.12598425196850405
0
CIRCLE
5
142
100
AcDbEntity
8
0
100
AcDbCircle
10
1.4781979934180554
20
-2.6014965944784603
30
1.0927391974657052e-17
40
0.12598425196850405
0
CIRCLE
5
143
100
AcDbEntity
8
0
100
AcDbCircle
10
-4.7516421182311417
20
-4.607837147170069
30
5.4636959873285258e-18
40
0.12811023622047149
0
CIRCLE
5
144
100
AcDbEntity
8
0
100
AcDbCircle
10
-6.7196421182311408
20
-4.6078371471700788
30
5.4636959873285258e-18
40
0.12811023622047157
0
CIRCLE
5
145
100
AcDbEntity
8
0
100
AcDbCircle
10
-4.7516421182311257
20
-7.5598371471700698
30
5.4636959873285258e-18
40
0.12811023622047174
0
CIRCLE
5
146
100
AcDbEntity
8
0
100
AcDbCircle
10
-6.7196421182311248
20
-7.5598371471700805
30
5.4636959873285258e-18
40
0.12811023622047191
0
CIRCLE
5
147
100
AcDbEntity
8
0
100
AcDbCircle
10
1.4781979934180622
20
-5.7724965944784632
30
-5.4636959873285258e-18
40
0.084645669291338654
0
LWPOLYLINE
5
148
100
AcDbEntity
8
0
100
AcDbPolyline
90
4
70
1
43
0.0
10
1.9781979934180647
20
-5.644996594478461
10
1.9781979934180653
20
-5.8999965944784618
10
0.97819799341806934
20
-5.8999965944784636
10
0.97819799341806546
20
-5.6449965944784646
0
ENDSEC
0
SECTION
2
OBJECTS
0
DICTIONARY
5
C
100
AcDbDictionary
3
ACAD_GROUP
350
D
3
ACAD_MLINESTYLE
350
17
0
DICTIONARY
5
D
100
AcDbDictionary
0
DICTIONARY
5
1A
330
C
100
AcDbDictionary
0
DICTIONARY
5
17
100
AcDbDictionary
0
ENDSEC
0
EOF
